Fri Sep 1 17:53:00 -05 2023
Fri Sep 1 17:54:00 -05 2023
Fri Sep 1 17:55:00 -05 2023
Fri Sep 1 17:56:00 -05 2023
Fri Sep 1 17:57:00 -05 2023
Fri Sep 1 17:58:00 -05 2023
Fri Sep 1 17:59:00 -05 2023
Fri Sep 1 18:00:00 -05 2023
Fri Sep 1 18:01:00 -05 2023
Fri Sep 1 18:02:00 -05 2023
Fri Sep 1 18:03:01 -05 2023
Fri Sep 1 18:04:00 -05 2023
Fri Sep 1 18:05:00 -05 2023
Fri Sep 1 18:06:00 -05 2023
